module uva-bloodsugarvoiceassistant

go 1.17

require github.com/jinzhu/gorm v1.9.16

require github.com/felixge/httpsnoop v1.0.1 // indirect

require (
	github.com/go-sql-driver/mysql v1.5.0 // indirect
	github.com/gorilla/handlers v1.5.1
	github.com/gorilla/mux v1.8.0
	github.com/jinzhu/inflection v1.0.0 // indirect
	github.com/rs/cors v1.8.2
)
